/home/djameson/things/channel_stealy ./107.edges 100 0.99 0.1 0 10 3:07.04
/home/djameson/things/channel_stealy ./107.edges 100 0.99 0.25 0 10 2:17.12
/home/djameson/things/channel_stealy ./107.edges 100 0.99 0.5 0 10 1:59.04
/home/djameson/things/channel_stealy ./107.edges 100 0.99 0.75 0 10 0:59.41
/home/djameson/things/channel_stealy ./107.edges 100 0.99 0.9 0 10 0:28.92
/home/djameson/things/disgusting_chain ./107.edges 100 0.99 0.1 0 10 0:43.10
/home/djameson/things/disgusting_chain ./107.edges 100 0.99 0.25 0 10 0:36.51
/home/djameson/things/disgusting_chain ./107.edges 100 0.99 0.5 0 10 0:32.93
/home/djameson/things/disgusting_chain ./107.edges 100 0.99 0.75 0 10 0:24.48
/home/djameson/things/disgusting_chain ./107.edges 100 0.99 0.9 0 10 0:18.15
/home/djameson/things/stealy_stealy ./107.edges 100 0.99 0.1 0 10 2:38.53
/home/djameson/things/stealy_stealy ./107.edges 100 0.99 0.25 0 10 2:17.82
/home/djameson/things/stealy_stealy ./107.edges 100 0.99 0.5 0 10 1:56.97
/home/djameson/things/stealy_stealy ./107.edges 100 0.99 0.75 0 10 0:57.81
/home/djameson/things/stealy_stealy ./107.edges 100 0.99 0.9 0 10 0:26.19
